bcdf957ab1b6a46018f2b421d9bdb79c63708e28a74f9886bf
9956a2db3246653297896d7c805134085960507ee668b64279
2477bd3d09d105dcd8f501b057df91f60cbf7d66f9a125a876
277f214a9391337fd2288ffd1194addaf8e7aeb480ff8fa3f0
970740343b7d9a727cb0ba0af937c44cef31ecf37f693c4b8f
34206b7bb4d2aba958c182bfd3e5ae2c807d3dc9f370bdb16f
259d828638bf0ffabe4b751d7880d9cd9ada63170b1e5a5c56
44d30fbc56e7c4ab0b70bc8ab3dc303929868c20b351e6dc0b
bb8ac89615acaafd6a68b9c6d78cf138357ee4a9ffa1ec487c
3995c6d81d8ee2224c6e9cbf69ece323f143022fd9d29418d6
8d3aa5491e4ce8a5db8c342e38a556279a78be8d36fd685a0d
8163b5d8f650ebfc4636589445ffa05345bd2a038cf7069de1
4347435724657f2bfd578f05ec3b22063546bd6960c6038fdb
2a12aa7fa605633c0195fce85b4554b0b174468f3d4fa58689
dea7f0e5725b235ba4a8b2d7a9a7132491080ec0b14f6ce6f7
5737c4afd481a18171f1e7a46bfc48895ff6df70f0fafd14b6
b774dddf55d51a769565395640377043a5f7cf35f9948c9363
eabae13f5e8734c6f47f70b490368762b2f5af0cc2fe248736
2e7e25cf54dfd358f51519ad687cbcbff2ac70d5ec518975af
d663f1f99793cc1a85a6f5c158fbc7b7ca27ae54e926006adb
7d1be608e3b19b3d3dc54c23c8938324052fdd37417b55c85d
a3475faa447821d7e0937d654ab4ab38070e7ad7768939c161
0b027160340dfa8c6500939b56d6b52248d9a3e120c00dfe9c
7cefdeb2c8a5d39a2b5c3c3370727073883ccbf8a85f09892a
03a4128d1256747d6c3efbd2230b248b8dfaf1777bf0f22970
e2ee920986b4f9274937995ac4016f06e3a9f98b54cbf07db3
05d2291730f622f67571b7da7b347cd8377c23c96a79803093
728cf86dae7cc83e415076cf12f9cca36fc7baf2d9de657479
66233b8705c2adeebd452c84bc1e5c13a55718943f67a10296
3255558e512cb52f88cef02a5ef68dd32d8a145e9f72b280b0
9b6b9ee5a18e45b021ecbf6b0968cd0ab358a8816b104893d3
c671c3ca9a7d17d80f5486e3e70938d81ba17658e4ff74b6a1
6cfa213c40e933dedd9b9d04cb8ad07afb7c674230b6a7b121
f6e7ee1a9caa4dac12bedfe04f099b35fffeeb407a143509ac
44d76d8a7d1bdff49e4c0323abc3e2375af59a960591d46f00
d2f20df92d42a00a2c43277194107d8998c04116842e5061db
9eba1d12ea0c7b1c25517e09da18a43faf150089d774b307d5
d8047d468a67a38c11c9d82e7e6c08c320dfe87f1465afd50a
1decefa55f953acae62b667fadc8fceaa34d2534f0768740c3
eea6196e8bca076d83f6f92fe85be272f9db4124d184dc92f6
